<?xml version="1.0" encoding="utf-8" ?>
<!DOCTYPE svg PUBLIC "-//W3C//DTD SVG 1.1//EN"
		"http://www.w3.org/Graphics/SVG/1.1/DTD/svg11.dtd">
<svg width="25" height="25" viewBox="0 0 6.6145832 6.6145835"
	 version="1.1"
	 xmlns="http://www.w3.org/2000/svg"
	 xml:lang="de">

	<g id="Ebene1" transform="scale(0.265)">
		<rect x="0" y="0" width="25" height="5" fill="#fff"/>
		<rect x="0" y="10" width="25" height="5" fill="#fff"/>
		<rect x="0" y="20" width="25" height="5" fill="#fff"/>
	</g>
</svg>
